{
  "images": [
    {
      "scale": "1x",
      "idiom": "iphone",
      "filename": "EA-circle-selected Copy.png"
    },
    {
      "scale": "2x",
      "idiom": "iphone",
      "filename": "EA-circle-selected Copy@2x.png"
    },
    {
      "scale": "3x",
      "idiom": "iphone",
      "filename": "EA-circle-selected Copy@3x.png"
    },
    {
      "idiom": "iphone"
    }
  ],
  "properties": {
    "template-rendering-intent": ""
  },
  "info": {
    "version": 1,
    "author": ""
  }
}